{
  "kind": "collectionType",
  "collectionName": "time_slots",
  "info": {
    "singularName": "time-slot",
    "pluralName": "time-slots",
    "displayName": "Time Slot"
  },
  "options": {
    "draftAndPublish": true
  },
  "pluginOptions": {},
  "attributes": {
    "start": {
      "type": "datetime",
      "required": true
    },
    "end": {
      "type": "datetime",
      "required": true
    },
    "content": {
      "type": "blocks"
    },
    "program": {
      "type": "relation",
      "relation": "manyToOne",
      "target": "api::program.program",
      "inversedBy": "time_slots"
    }
  }
}
